…
# by file
cloc(system.file("extdata", "qrencoder.cpp", package="cloc"))
## # A tibble: 2 × 10
##   source      language file_count file_count_pct   loc loc_pct blank_lines blank_line_pct comment_lines comment_line_pct
##   <chr>       <chr>         <int>          <dbl> <int>   <dbl>       <int>          <dbl>         <int>            <dbl>
## 1 qrencoder.… C++               1            0.5   142     0.5          41            0.5            63              0.5
## 2 qrencoder.… SUM               1            0.5   142     0.5          41            0.5            63              0.5

# from a url
cloc("https://rud.is/dl/cloc-1.74.tar.gz")
## # A tibble: 93 × 10
##    source     language file_count file_count_pct   loc loc_pct blank_lines blank_line_pct comment_lines comment_line_pct
##    <chr>      <chr>         <int>          <dbl> <int>   <dbl>       <int>          <dbl>         <int>            <dbl>
##  1 cloc-1.74… Perl              5        0.00903 19712 0.299          1353       0.211             2430          0.222  
##  2 cloc-1.74… YAML            141        0.255    2887 0.0438            1       0.000156           141          0.0129 
##  3 cloc-1.74… Markdown          1        0.00181  2195 0.0333          226       0.0352              26          0.00237
##  4 cloc-1.74… ANTLR G…          2        0.00361  1012 0.0154          200       0.0312              59          0.00538
##  5 cloc-1.74… R                 3        0.00542   698 0.0106           95       0.0148             312          0.0285 
##  6 cloc-1.74… C/C++ H…          1        0.00181   617 0.00937         191       0.0298             780          0.0712 
##  7 cloc-1.74… C++               4        0.00722   570 0.00865         132       0.0206             173          0.0158 
##  8 cloc-1.74… Forth             2        0.00361   529 0.00803          17       0.00265             84          0.00766
##  9 cloc-1.74… TypeScr…          3        0.00542   410 0.00622          52       0.00810             39          0.00356
## 10 cloc-1.74… Logtalk           1        0.00181   368 0.00559          59       0.00919             57          0.00520
## # ℹ 83 more rows
```
…
Recognized languages

``` r
cloc_recognized_languages()
## # A tibble: 262 × 2
##    lang          extensions            
##    <chr>         <chr>                 
##  1 ABAP          abap                  
##  2 ActionScript  as                    
##  3 Ada           ada, adb, ads, pad    
##  4 ADSO/IDSM     adso                  
##  5 Agda          agda, lagda           
##  6 AMPLE         ample, dofile, startup
##  7 Ant           build.xml, build.xml  
##  8 ANTLR Grammar g, g4                 
##  9 Apex Class    cls                   
## 10 Apex Trigger  trigger               
## # ℹ 252 more rows
```
…
