Count Lines of Code, Comments and Whitespace in Source Files and Archives • cloc
…
# by file
cloc(system.file("extdata", "qrencoder.cpp", package="cloc"))
#> # A tibble: 1 x 10
#>   source      language file_count file_count_pct   loc loc_pct blank_lines blank_line_pct comment_lines comment_line_pct
#>   <chr>       <chr>         <int>          <dbl> <int>   <dbl>       <int>          <dbl>         <int>            <dbl>
#> 1 qrencoder.… C++               1              1   142       1          41              1            63                1

# from a url
cloc("https://rud.is/dl/cloc-1.74.tar.gz")
#> # A tibble: 93 x 10
#>    source    language  file_count file_count_pct   loc loc_pct blank_lines blank_line_pct comment_lines comment_line_pct
#>    <chr>     <chr>          <int>          <dbl> <int>   <dbl>       <int>          <dbl>         <int>            <dbl>
#>  1 cloc-1.7… Perl               5        0.0180  19712  0.598         1353       0.420             2430          0.443  
#>  2 cloc-1.7… YAML             141        0.507    2887  0.0876           1       0.000311           141          0.0257 
#>  3 cloc-1.7… Markdown           1        0.00360  2195  0.0666         226       0.0702              26          0.00474
#>  4 cloc-1.7… ANTLR Gr…          2        0.00719  1012  0.0307         200       0.0621              59          0.0108 
#>  5 cloc-1.7… R                  3        0.0108    698  0.0212          95       0.0295             312          0.0569 
#>  6 cloc-1.7… C/C++ He…          1        0.00360   617  0.0187         191       0.0593             780          0.142  
#>  7 cloc-1.7… C++                4        0.0144    570  0.0173         132       0.0410             173          0.0315 
#>  8 cloc-1.7… Forth              2        0.00719   529  0.0160          17       0.00528             84          0.0153 
#>  9 cloc-1.7… TypeScri…          3        0.0108    410  0.0124          52       0.0162              39          0.00711
#> 10 cloc-1.7… Logtalk            1        0.00360   368  0.0112          59       0.0183              57          0.0104 
#> # … with 83 more rows
…
# single file
str(cloc_by_file(system.file("extdata", "qrencoder.cpp", package="cloc")))
#> Classes 'tbl_df', 'tbl' and 'data.frame':    1 obs. of  6 variables:
#>  $ source       : chr "qrencoder.cpp"
#>  $ filename     : chr "/Library/Frameworks/R.framework/Versions/3.5/Resources/library/cloc/extdata/qrencoder.cpp"
#>  $ language     : chr "C++"
#>  $ loc          : int 142
#>  $ blank_lines  : int 41
#>  $ comment_lines: int 63

Recognized languages

cloc_recognized_languages()
#> # A tibble: 242 x 2
#>    lang           extensions            
#>    <chr>          <chr>                 
#>  1 ABAP           abap                  
#>  2 ActionScript   as                    
#>  3 Ada            ada, adb, ads, pad    
#>  4 ADSO/IDSM      adso                  
#>  5 Agda           agda, lagda           
#>  6 AMPLE          ample, dofile, startup
#>  7 Ant            build.xml, build.xml  
#>  8 ANTLR Grammar  g, g4                 
#>  9 Apex Trigger   trigger               
#> 10 Arduino Sketch ino, pde              
#> # … with 232 more rows
…
